<?xml version="1.0" encoding="UTF-8" standalone="no"?>
<!-- Created with Inkscape (http://www.inkscape.org/) -->

<svg
   xmlns:dc="http://purl.org/dc/elements/1.1/"
   xmlns:cc="http://creativecommons.org/ns#"
   xmlns:rdf="http://www.w3.org/1999/02/22-rdf-syntax-ns#"
   xmlns:svg="http://www.w3.org/2000/svg"
   xmlns="http://www.w3.org/2000/svg"
   xmlns:sodipodi="http://sodipodi.sourceforge.net/DTD/sodipodi-0.dtd"
   xmlns:inkscape="http://www.inkscape.org/namespaces/inkscape"
   width="210mm"
   height="297mm"
   viewBox="0 0 744.09448819 1052.3622047"
   id="svg2"
   version="1.1"
   inkscape:version="0.91 r13725"
   sodipodi:docname="ion.svg"
   inkscape:export-filename="/home/fridlund/Development/cosima-history-private/logo/cosima-logo-salmiak.svg"
   inkscape:export-xdpi="90"
   inkscape:export-ydpi="90">
  <defs
     id="defs4" />
  <sodipodi:namedview
     id="base"
     pagecolor="#ffffff"
     bordercolor="#666666"
     borderopacity="1.0"
     inkscape:pageopacity="0.0"
     inkscape:pageshadow="2"
     inkscape:zoom="0.5"
     inkscape:cx="-86.585447"
     inkscape:cy="501.07192"
     inkscape:document-units="px"
     inkscape:current-layer="g5034"
     showgrid="true"
     showguides="false"
     inkscape:window-width="1861"
     inkscape:window-height="1176"
     inkscape:window-x="59"
     inkscape:window-y="382"
     inkscape:window-maximized="1">
    <inkscape:grid
       type="xygrid"
       id="grid4424" />
  </sodipodi:namedview>
  <metadata
     id="metadata7">
    <rdf:RDF>
      <cc:Work
         rdf:about="">
        <dc:format>image/svg+xml</dc:format>
        <dc:type
           rdf:resource="http://purl.org/dc/dcmitype/StillImage" />
        <dc:title></dc:title>
      </cc:Work>
    </rdf:RDF>
  </metadata>
  <g
     inkscape:groupmode="layer"
     id="layer9"
     inkscape:label="material grid"
     style="display:inline">
    <g
       inkscape:groupmode="layer"
       id="layer10"
       inkscape:label="material - grid outline"
       style="display:inline">
      <path
         style="display:inline;fill:#000048;fill-opacity:1;fill-rule:evenodd;stroke:none;stroke-width:1px;stroke-linecap:butt;stroke-linejoin:miter;stroke-opacity:1"
         d="m 285.31641,327.59766 c -26.3112,13.1556 -52.6224,26.31119 -78.9336,39.46679 28.58402,14.29225 57.16797,28.58465 85.75196,42.87696 -47.68555,23.84244 -95.3711,47.68489 -143.05665,71.52734 C 126.57161,470.21549 104.0651,458.96224 81.558594,447.70898 53.798177,461.58919 26.03776,475.4694 -1.7226562,489.34961 20.783854,500.60286 43.290365,511.85612 65.796875,523.10938 43.290365,534.36263 20.783854,545.61589 -1.7226562,556.86914 26.03776,570.74935 53.798177,584.62956 81.558594,598.50977 104.0651,587.25651 126.57161,576.00326 149.07812,564.75 c 47.68555,23.84245 95.3711,47.6849 143.05665,71.52734 -28.58399,14.29231 -57.16794,28.58471 -85.75196,42.87696 26.60938,13.30468 53.21875,26.60937 79.82813,39.91406 28.58397,-14.29168 57.16797,-28.58333 85.75195,-42.875 28.58398,14.29167 57.16798,28.58332 85.75195,42.875 27.76042,-13.88021 55.52084,-27.76042 83.28125,-41.64063 -28.58401,-14.29225 -57.16796,-28.58464 -85.75195,-42.87695 47.6849,-23.84245 95.36979,-47.68489 143.05469,-71.52734 22.50716,11.2539 45.01431,22.50783 67.52148,33.76172 26.60941,-13.30528 53.21868,-26.61084 79.82813,-39.91602 -22.50651,-11.25325 -45.01302,-22.50651 -67.51953,-33.75976 22.50651,-11.25326 45.01302,-22.50652 67.51953,-33.75977 -26.60938,-13.30469 -53.21875,-26.60938 -79.82813,-39.91406 -22.50651,11.25325 -45.01302,22.50651 -67.51953,33.75976 -47.68555,-23.84245 -95.37109,-47.68489 -143.05664,-71.52734 28.58399,-14.29231 57.16794,-28.5847 85.75195,-42.87695 -27.76041,-13.88021 -55.52083,-27.76042 -83.28125,-41.64063 -28.58397,14.29168 -57.16797,28.58333 -85.75195,42.875 -28.58398,-14.29167 -57.16798,-28.58332 -85.75195,-42.875 l -0.89443,0.44721 -10e-5,6e-5 z m 233.15625,195.51172 c -47.68555,23.84309 -95.3711,47.68619 -143.05664,71.52929 -47.68555,-23.8431 -95.3711,-47.6862 -143.05664,-71.52929 47.68554,-23.84245 95.37109,-47.6849 143.05664,-71.52735 47.68554,23.84245 95.37109,47.6849 143.05664,71.52735 z"
         id="path4974-2"
         inkscape:connector-curvature="0"
         inkscape:export-xdpi="90"
         inkscape:export-ydpi="90" />
      <path
         style="fill:#000048;fill-opacity:1;stroke:none;stroke-width:5;stroke-linecap:butt;stroke-linejoin:miter;stroke-miterlimit:4;stroke-dasharray:none;stroke-opacity:1"
         d="m 246.53402,698.48984 -38.56136,-19.38756 42.83946,-21.42925 42.83946,-21.42926 -72.13523,-36.07467 -72.13524,-36.07466 -33.92773,16.9738 L 81.525651,598.04203 40.46436,577.50161 -0.59693232,556.9612 32.667957,540.31668 c 18.29569,-9.15447 32.968953,-17.1101 32.607253,-17.67915 -0.361701,-0.56906 -14.8537,-8.0944 -32.204443,-16.72299 -17.350741,-8.62857 -31.5468027,-16.03061 -31.5468027,-16.44897 0,-0.41836 18.0028267,-9.7437 40.0062847,-20.72298 l 40.006282,-19.96233 33.572409,16.76813 33.57242,16.76814 59.83373,-29.9235 59.83375,-29.92349 8.73747,26.7528 c 5.65218,17.30614 10.47765,29.39513 13.66563,34.23583 l 4.92814,7.483 -32.43093,16.22774 -32.43093,16.22774 72.14796,36.06553 72.14797,36.06555 71.83941,-35.92535 c 39.51169,-19.75894 71.541,-36.39204 71.17626,-36.96243 -0.36474,-0.5704 -22.50151,-11.92305 -49.19283,-25.22811 l -48.52965,-24.19104 2.08887,-5.80897 c 3.13705,-8.72388 3.96311,-24.794 1.85041,-35.99798 -1.82388,-9.67227 -16.08051,-39.87957 -28.90263,-61.23955 l -5.14531,-8.57143 33.46878,-16.79109 33.46879,-16.79109 41.06274,20.54114 41.06275,20.54115 -42.8399,21.42947 -42.83989,21.42947 72.10913,36.06022 72.10913,36.06021 33.95738,-16.93155 33.95739,-16.93155 38.56877,19.24208 c 21.21283,10.58315 38.56879,19.57944 38.56879,19.99177 0,0.41233 -14.94549,8.21423 -33.21218,17.33755 l -33.21218,16.58788 33.56664,16.79548 33.56664,16.79549 -38.92392,19.4464 -38.92393,19.4464 -33.58012,-16.77199 -33.58013,-16.772 -72.48568,36.24843 -72.48569,36.24841 42.84822,21.43365 42.84821,21.43363 -40.72916,20.34965 -40.72915,20.34966 -42.84125,-21.42984 -42.84124,-21.42985 -42.14254,21.17749 c -23.1784,11.64763 -42.7854,21.17757 -43.57112,21.17769 -0.78571,10e-5 -18.78118,-8.72423 -39.98994,-19.38739 z"
         id="path5040"
         inkscape:connector-curvature="0"
         inkscape:export-xdpi="90"
         inkscape:export-ydpi="90" />
    </g>
    <g
       style="display:inline"
       inkscape:label="material - grid"
       id="g5034"
       inkscape:groupmode="layer">
      <path
         style="display:inline;fill:#0101ff;fill-rule:evenodd;stroke:none;stroke-width:1px;stroke-linecap:butt;stroke-linejoin:miter;stroke-opacity:1;fill-opacity:1"
         d="m 224.27344,367.06445 c 28.58399,14.29231 57.16793,28.58471 85.75195,42.87696 -53.64907,26.82425 -107.29818,53.64842 -160.94727,80.47265 -22.50651,-11.25325 -45.01302,-22.50651 -67.519526,-33.75976 -21.796875,10.89843 -43.59375,21.79687 -65.390625,32.69531 22.50651,11.25325 45.013021,22.50651 67.519531,33.75977 -22.50651,11.25325 -45.013021,22.50651 -67.519531,33.75976 21.796875,10.89844 43.59375,21.79688 65.390625,32.69531 22.506506,-11.25325 45.013016,-22.50651 67.519526,-33.75976 53.64909,26.82423 107.2982,53.6484 160.94727,80.47265 -28.58402,14.29225 -57.16796,28.58465 -85.75195,42.87696 20.64583,10.32291 41.29166,20.64583 61.9375,30.96875 28.58398,-14.29167 57.16797,-28.58332 85.75195,-42.875 28.58398,14.29168 57.16797,28.58333 85.75195,42.875 21.79688,-10.89844 43.59375,-21.79688 65.39063,-32.69532 -28.58399,-14.2923 -57.16794,-28.5847 -85.75195,-42.87695 53.64843,-26.82422 107.29687,-53.64844 160.94531,-80.47266 22.50717,11.25389 45.01432,22.50782 67.52148,33.76172 20.64584,-10.32356 41.29167,-20.64713 61.9375,-30.9707 -22.50651,-11.25325 -45.01302,-22.50651 -67.51953,-33.75976 22.50651,-11.25326 45.01302,-22.50652 67.51953,-33.75977 -20.64583,-10.32292 -41.29166,-20.64583 -61.9375,-30.96875 -22.50651,11.25325 -45.01302,22.50651 -67.51953,33.75976 -53.64908,-26.82423 -107.29819,-53.6484 -160.94726,-80.47265 28.58401,-14.29225 57.16796,-28.58465 85.75195,-42.87695 -21.79688,-10.89844 -43.59375,-21.79688 -65.39063,-32.69532 -28.58398,14.29167 -57.16797,28.58332 -85.75195,42.875 -28.58398,-14.29168 -57.16797,-28.58333 -85.75195,-42.875 -20.64584,10.32292 -41.29167,20.64584 -61.9375,30.96875 z m 152.03711,76.01953 c 53.3509,26.67515 106.70184,53.35023 160.05273,80.0254 -53.64911,26.82483 -107.29817,53.64975 -160.94726,80.4746 -53.6491,-26.82485 -107.29816,-53.64977 -160.94727,-80.4746 53.64907,-26.82426 107.29818,-53.64843 160.94727,-80.47266 l 0.89442,0.44721 1.1e-4,5e-5 z"
         id="path5036"
         inkscape:connector-curvature="0" />
    </g>
  </g>
  <g
     style="display:none"
     inkscape:label="material grid copy"
     id="g5280"
     inkscape:groupmode="layer"
     sodipodi:insensitive="true">
    <g
       inkscape:groupmode="layer"
       id="layer12"
       inkscape:label="material grid copy 1">
      <path
         style="fill:none;fill-rule:evenodd;stroke:#000000;stroke-width:1px;stroke-linecap:butt;stroke-linejoin:miter;stroke-opacity:1"
         d="M 70.535534,537.77641 361.94975,392.82667 647,536.3622 361.34315,681.31195 Z"
         id="path5293"
         inkscape:connector-curvature="0"
         sodipodi:nodetypes="ccccc" />
      <path
         style="fill:none;fill-rule:evenodd;stroke:#000000;stroke-width:1px;stroke-linecap:butt;stroke-linejoin:miter;stroke-opacity:1"
         d="m 197,536.3622 166.46447,-80.70711 159.19238,81.41422 -159.19238,80.7071 z"
         id="path5295"
         inkscape:connector-curvature="0"
         sodipodi:nodetypes="ccccc" />
      <path
         style="fill:#000080;fill-opacity:1;stroke:#000048;stroke-width:3.53553391;stroke-linecap:butt;stroke-linejoin:miter;stroke-miterlimit:4;stroke-dasharray:none;stroke-opacity:0.99607843"
         d="M 217.0697,609.18728 C 137.77736,570.06683 73.111062,537.83712 73.366825,537.56571 74.113194,536.77368 361.1553,394.16296 362.0031,394.16296 c 0.81759,0 281.42626,141.18415 282.23153,142.00066 0.38736,0.39278 -143.90517,73.95893 -257.64925,131.35997 L 361.2376,680.31537 217.0697,609.18728 Z m 227.03366,-31.33721 c 43.89108,-22.25615 79.79416,-40.63209 79.78463,-40.83541 -0.0311,-0.66324 -159.1517,-81.68697 -160.42312,-81.68697 -1.34303,0 -167.62756,80.35316 -167.64592,81.01101 -0.0154,0.54904 166.26562,81.89415 167.49746,81.94025 0.54175,0.0203 36.89588,-18.17273 80.78695,-40.42888 z"
         id="path5297"
         inkscape:connector-curvature="0" />
    </g>
    <g
       inkscape:label="material grid copy 1 copy"
       id="g5299"
       inkscape:groupmode="layer">
      <path
         sodipodi:nodetypes="ccccc"
         inkscape:connector-curvature="0"
         id="path5301"
         d="M 70.535534,537.77641 361.94975,392.82667 647,536.3622 361.34315,681.31195 Z"
         style="fill:none;fill-rule:evenodd;stroke:#000000;stroke-width:1px;stroke-linecap:butt;stroke-linejoin:miter;stroke-opacity:1" />
      <path
         sodipodi:nodetypes="ccccc"
         inkscape:connector-curvature="0"
         id="path5303"
         d="m 197,536.3622 166.46447,-80.70711 159.19238,81.41422 -159.19238,80.7071 z"
         style="fill:none;fill-rule:evenodd;stroke:#000000;stroke-width:1px;stroke-linecap:butt;stroke-linejoin:miter;stroke-opacity:1" />
      <path
         inkscape:connector-curvature="0"
         id="path5305"
         d="M 217.0697,609.18728 C 137.77736,570.06683 73.111062,537.83712 73.366825,537.56571 74.113194,536.77368 361.1553,394.16296 362.0031,394.16296 c 0.81759,0 281.42626,141.18415 282.23153,142.00066 0.38736,0.39278 -143.90517,73.95893 -257.64925,131.35997 L 361.2376,680.31537 217.0697,609.18728 Z m 227.03366,-31.33721 c 43.89108,-22.25615 79.79416,-40.63209 79.78463,-40.83541 -0.0311,-0.66324 -159.1517,-81.68697 -160.42312,-81.68697 -1.34303,0 -167.62756,80.35316 -167.64592,81.01101 -0.0154,0.54904 166.26562,81.89415 167.49746,81.94025 0.54175,0.0203 36.89588,-18.17273 80.78695,-40.42888 z"
         style="fill:#000080;fill-opacity:1;stroke:#000048;stroke-width:3.53553391;stroke-linecap:butt;stroke-linejoin:miter;stroke-miterlimit:4;stroke-dasharray:none;stroke-opacity:0.99607843" />
      <path
         style="fill:#8a8aff;fill-opacity:1;stroke:#000048;stroke-width:10;stroke-linecap:butt;stroke-linejoin:miter;stroke-miterlimit:4;stroke-dasharray:none;stroke-opacity:0.99607843"
         d="m 328.73817,598.75607 c -18.15,-9.02529 -54.09606,-26.65119 -79.88014,-39.16866 l -46.88014,-22.75903 34.88014,-17.59545 c 19.18408,-9.6775 35.50917,-17.64315 36.27798,-17.70144 0.76881,-0.0583 4.1489,5.65836 7.51132,12.70367 14.3398,30.04635 48.17158,47.58968 79.3523,41.14781 29.40802,-6.07563 53.0678,-28.60487 57.83128,-55.06793 0.7811,-4.33925 1.97976,-8.91993 2.66372,-10.17929 0.81552,-1.50163 17.9341,6.1034 49.73492,22.09504 l 48.49138,24.38478 -77.68802,39.40496 c -42.7284,21.67273 -78.04952,39.34651 -78.49137,39.27506 -0.44185,-0.0714 -15.65337,-7.51423 -33.80337,-16.53952 z"
         id="path5307"
         inkscape:connector-curvature="0" />
    </g>
  </g>
  <g
     inkscape:label="material plane - eight corners"
     id="g5141"
     inkscape:groupmode="layer"
     style="display:none"
     sodipodi:insensitive="true">
    <g
       style="display:inline"
       inkscape:label="material - plane outline"
       id="g5153"
       inkscape:groupmode="layer">
      <path
         style="display:inline;fill:#000048;fill-opacity:1;fill-rule:evenodd;stroke:none;stroke-width:1px;stroke-linecap:butt;stroke-linejoin:miter;stroke-opacity:1"
         d="M 344.71484,330.05859 C 324.255,330.44288 303.59438,329.4611 283.25195,330.875 192.22409,382.53603 101.1952,434.19527 10.167969,485.85742 c 0,24.83464 0,49.66927 0,74.50391 91.487651,51.92233 182.975851,103.8437 274.464841,155.76367 58.65691,-0.50413 117.49948,1.00893 176.04102,-0.78125 91.02787,-51.66103 182.05675,-103.32027 273.08398,-154.98242 0,-24.83464 0,-49.66927 0,-74.50391 C 642.27069,433.93596 550.78399,382.01374 459.29492,330.0957 c -38.19333,0.0936 -76.38671,-0.0572 -114.58008,-0.0371 z"
         id="path5155"
         inkscape:connector-curvature="0" />
    </g>
    <g
       inkscape:groupmode="layer"
       id="g5149"
       inkscape:label="material - plane"
       style="display:inline">
      <path
         style="display:inline;fill:#000080;fill-rule:evenodd;stroke:none;stroke-width:1px;stroke-linecap:butt;stroke-linejoin:miter;stroke-opacity:1"
         d="m 20.167969,491.67773 c 0,20.95443 0,41.90886 0,62.86329 89.033851,50.52734 178.067711,101.05468 267.101561,151.58203 56.46224,0 112.92448,0 169.38672,0 89.03385,-50.52735 178.06771,-101.05469 267.10156,-151.58203 0,-20.95443 0,-41.90886 0,-62.86329 C 634.72396,441.15039 545.6901,390.62305 456.65625,340.0957 c -56.46224,0 -112.92448,0 -169.38672,0 -89.03385,50.52735 -178.06771,101.05469 -267.101561,151.58203 z"
         id="path5151"
         inkscape:connector-curvature="0" />
    </g>
  </g>
  <g
     inkscape:groupmode="layer"
     id="g5169"
     inkscape:label="material plane - four corners"
     style="display:none">
    <g
       inkscape:groupmode="layer"
       id="g5185"
       inkscape:label="material - plane outline"
       style="display:inline">
      <path
         inkscape:connector-curvature="0"
         id="path5187"
         d="M 25.766142,526.2144 360.86858,693.76566 695.97103,526.2144 360.86858,358.66314 Z"
         style="fill:#000048;fill-opacity:1;fill-rule:evenodd;stroke:none;stroke-width:17.44940567px;stroke-linecap:butt;stroke-linejoin:miter;stroke-opacity:1" />
    </g>
    <g
       style="display:inline"
       inkscape:label="material - plane"
       id="g5175"
       inkscape:groupmode="layer">
      <path
         style="fill:#0000b3;fill-opacity:1;fill-rule:evenodd;stroke:none;stroke-width:17.44940567px;stroke-linecap:butt;stroke-linejoin:miter;stroke-opacity:1"
         d="m 62.910312,526.21425 c 99.319418,49.66002 198.638828,99.32003 297.958228,148.98002 99.31941,-49.65999 198.63882,-99.32 297.95823,-148.98002 -99.31941,-49.65939 -198.63882,-99.31881 -297.95823,-148.97821 -99.3194,49.6594 -198.63881,99.31882 -297.958228,148.97821 z"
         id="path5179"
         inkscape:connector-curvature="0" />
    </g>
    <g
       inkscape:groupmode="layer"
       id="g5375"
       inkscape:label="material - plane copy"
       style="display:inline">
      <path
         style="fill:#000048;fill-opacity:1;fill-rule:evenodd;stroke:none;stroke-width:17.44940567px;stroke-linecap:butt;stroke-linejoin:miter;stroke-opacity:1"
         d="m 201.5625,526.21484 c 53.10221,26.55078 106.20443,53.10157 159.30664,79.65235 C 413.9707,579.31641 467.07227,552.76563 520.17383,526.21484 467.07227,499.66406 413.9707,473.11328 360.86914,446.5625 307.76693,473.11328 254.66471,499.66406 201.5625,526.21484 Z"
         id="path5377"
         inkscape:connector-curvature="0" />
    </g>
  </g>
  <g
     inkscape:label="material plane - eight corners 2"
     id="g5225"
     inkscape:groupmode="layer"
     style="display:none">
    <g
       inkscape:groupmode="layer"
       id="g5231"
       inkscape:label="material - plane"
       style="display:none">
      <path
         style="fill:#0000b3;fill-opacity:1;fill-rule:evenodd;stroke:#000048;stroke-width:6.0275507px;stroke-linecap:butt;stroke-linejoin:miter;stroke-opacity:0.99607843"
         d="m 226.86322,418.15352 -120.551,60.27544 0,120.55102 120.551,60.27546 241.10193,0 120.55105,-60.27546 0,-120.55102 -120.55105,-60.27544 -241.10193,0 z"
         id="path5235"
         inkscape:connector-curvature="0" />
      <path
         style="fill:#0000b3;fill-opacity:1;fill-rule:evenodd;stroke:#000048;stroke-width:6.0275507px;stroke-linecap:butt;stroke-linejoin:miter;stroke-opacity:0.99607843"
         d="M 226.86322,418.15877 588.5162,598.98532"
         id="path5250"
         inkscape:connector-curvature="0" />
      <path
         style="fill:#0000b3;fill-opacity:1;fill-rule:evenodd;stroke:#000048;stroke-width:6.0275507px;stroke-linecap:butt;stroke-linejoin:miter;stroke-opacity:0.99607843"
         d="M 467.96515,659.26075 106.31222,478.43427"
         id="path5252"
         inkscape:connector-curvature="0" />
      <path
         style="fill:#0000b3;fill-opacity:1;fill-rule:evenodd;stroke:#000048;stroke-width:6.0275507px;stroke-linecap:butt;stroke-linejoin:miter;stroke-opacity:0.99607843"
         d="M 106.31222,598.98532 467.96515,418.15877"
         id="path5254"
         inkscape:connector-curvature="0" />
      <path
         style="fill:#0000b3;fill-opacity:1;fill-rule:evenodd;stroke:#000048;stroke-width:6.0275507px;stroke-linecap:butt;stroke-linejoin:miter;stroke-opacity:0.99607843"
         d="M 588.5162,478.43427 226.86322,659.26075"
         id="path5256"
         inkscape:connector-curvature="0" />
    </g>
  </g>
  <g
     inkscape:groupmode="layer"
     id="layer15"
     inkscape:label="block"
     style="display:none">
    <path
       style="fill:#3636ff;fill-opacity:1;fill-rule:evenodd;stroke:#000000;stroke-width:6.59686184px;stroke-linecap:butt;stroke-linejoin:miter;stroke-opacity:1"
       d="M 52.533412,537.61136 350.56422,654.42772 648.59504,537.61136 350.56422,420.79502 Z"
       id="path5503"
       inkscape:connector-curvature="0" />
    <path
       style="fill:none;fill-rule:evenodd;stroke:#000000;stroke-width:6.59686184px;stroke-linecap:butt;stroke-linejoin:miter;stroke-opacity:1"
       d="m 52.533412,537.61136 0,116.81636 298.030808,116.81636 298.03082,-116.81636 0,-116.81636"
       id="path5505"
       inkscape:connector-curvature="0" />
    <path
       style="fill:none;fill-rule:evenodd;stroke:#000000;stroke-width:6.59686184px;stroke-linecap:butt;stroke-linejoin:miter;stroke-opacity:1"
       d="m 350.56422,771.24408 0,-116.81636"
       id="path5507"
       inkscape:connector-curvature="0" />
    <path
       style="fill:#000096;fill-opacity:1;stroke:#ffffff;stroke-width:15;stroke-linecap:butt;stroke-linejoin:miter;stroke-miterlimit:4;stroke-dasharray:none;stroke-opacity:0"
       d="m 202.90717,709.30992 c -78.925,-30.91541 -144.287499,-56.49627 -145.249999,-56.84635 -1.637432,-0.59556 -1.75,-4.13719 -1.75,-55.05899 l 0,-54.4225 9.75,3.79864 c 49.744769,19.38078 280.676949,110.07719 280.933859,110.3341 0.18343,0.18344 0.21711,24.6496 0.0748,54.36924 l -0.25866,54.03571 -143.5,-56.20985 z"
       id="path5521"
       inkscape:connector-curvature="0" />
    <path
       style="fill:#7676ff;fill-opacity:1;stroke:#ffffff;stroke-width:15;stroke-linecap:butt;stroke-linejoin:miter;stroke-miterlimit:4;stroke-dasharray:none;stroke-opacity:0"
       d="m 353.90717,711.47748 0,-54.28682 144.75,-56.71868 c 79.6125,-31.19528 145.09138,-56.71621 145.50861,-56.71318 0.41724,0.003 0.64224,24.36472 0.5,54.1371 l -0.25861,54.1316 -145,56.85375 c -79.75,31.26956 -145.1125,56.86034 -145.25,56.8684 -0.1375,0.008 -0.25,-24.41442 -0.25,-54.27217 z"
       id="path5523"
       inkscape:connector-curvature="0" />
  </g>
  <g
     inkscape:groupmode="layer"
     id="layer8"
     inkscape:label="ion"
     style="display:none"
     sodipodi:insensitive="true">
    <g
       inkscape:groupmode="layer"
       id="g4536"
       inkscape:label="ion - bottom outer outline"
       style="display:inline">
      <path
         sodipodi:nodetypes="sssss"
         style="color:#000000;font-style:normal;font-variant:normal;font-weight:normal;font-stretch:normal;font-size:medium;line-height:normal;font-family:sans-serif;text-indent:0;text-align:start;text-decoration:none;text-decoration-line:none;text-decoration-style:solid;text-decoration-color:#000000;letter-spacing:normal;word-spacing:normal;text-transform:none;direction:ltr;block-progression:tb;writing-mode:lr-tb;baseline-shift:baseline;text-anchor:start;white-space:normal;clip-rule:nonzero;display:inline;overflow:visible;visibility:visible;opacity:1;isolation:auto;mix-blend-mode:normal;color-interpolation:sRGB;color-interpolation-filters:linearRGB;solid-color:#000000;solid-opacity:1;fill:#ff0000;fill-opacity:1;fill-rule:nonzero;stroke:none;stroke-width:5;stroke-linecap:butt;stroke-linejoin:miter;stroke-miterlimit:4;stroke-dasharray:none;stroke-dashoffset:0;stroke-opacity:1;color-rendering:auto;image-rendering:auto;shape-rendering:auto;text-rendering:auto;enable-background:accumulate"
         d="m 230.5721,209.47785 c -36.83037,15.63357 33.97552,265.59088 49.60906,302.42123 15.63356,36.83037 58.23426,54.04214 95.0646,38.4086 36.83035,-15.63354 54.04215,-58.23425 38.4086,-95.0646 C 398.02083,418.41273 267.40243,193.84429 230.5721,209.47785 Z"
         id="path4538"
         inkscape:connector-curvature="0"
         inkscape:export-xdpi="90"
         inkscape:export-ydpi="90" />
    </g>
    <g
       style="display:inline"
       inkscape:label="ion - bottom"
       id="g4552"
       inkscape:groupmode="layer">
      <path
         style="color:#000000;font-style:normal;font-variant:normal;font-weight:normal;font-stretch:normal;font-size:medium;line-height:normal;font-family:sans-serif;text-indent:0;text-align:start;text-decoration:none;text-decoration-line:none;text-decoration-style:solid;text-decoration-color:#000000;letter-spacing:normal;word-spacing:normal;text-transform:none;direction:ltr;block-progression:tb;writing-mode:lr-tb;baseline-shift:baseline;text-anchor:start;white-space:normal;clip-rule:nonzero;display:inline;overflow:visible;visibility:visible;opacity:1;isolation:auto;mix-blend-mode:normal;color-interpolation:sRGB;color-interpolation-filters:linearRGB;solid-color:#000000;solid-opacity:1;fill:#ff6600;fill-opacity:1;fill-rule:nonzero;stroke:none;stroke-width:5;stroke-linecap:butt;stroke-linejoin:miter;stroke-miterlimit:4;stroke-dasharray:none;stroke-dashoffset:0;stroke-opacity:1;color-rendering:auto;image-rendering:auto;shape-rendering:auto;text-rendering:auto;enable-background:accumulate"
         d="m 233.55859,215.22461 c -8.35447,5.32777 -6.29936,16.76119 -7.07786,25.15034 -0.35594,56.22661 15.84043,110.85667 28.10333,165.40287 9.93631,38.64281 19.94228,77.54833 36.31438,114.03273 19.94187,31.85324 69.20681,40.90518 97.85148,15.59589 23.68233,-19.05498 32.28737,-55.15898 17.28328,-82.03925 -14.29272,-30.7882 -33.11687,-59.21697 -50.00194,-88.6352 C 326.16353,315.9162 294.7558,267.18921 254.3457,226.38086 c -5.90075,-5.1147 -12.58903,-11.00314 -20.78711,-11.15625 z"
         id="path4554"
         inkscape:connector-curvature="0" />
    </g>
    <g
       inkscape:groupmode="layer"
       id="g4558"
       inkscape:label="ion - bottom inner outline"
       style="display:inline">
      <path
         style="color:#000000;font-style:normal;font-variant:normal;font-weight:normal;font-stretch:normal;font-size:medium;line-height:normal;font-family:sans-serif;text-indent:0;text-align:start;text-decoration:none;text-decoration-line:none;text-decoration-style:solid;text-decoration-color:#000000;letter-spacing:normal;word-spacing:normal;text-transform:none;direction:ltr;block-progression:tb;writing-mode:lr-tb;baseline-shift:baseline;text-anchor:start;white-space:normal;clip-rule:nonzero;display:inline;overflow:visible;visibility:visible;opacity:1;isolation:auto;mix-blend-mode:normal;color-interpolation:sRGB;color-interpolation-filters:linearRGB;solid-color:#000000;solid-opacity:1;fill:#ff0000;fill-opacity:1;fill-rule:nonzero;stroke:none;stroke-width:5;stroke-linecap:butt;stroke-linejoin:miter;stroke-miterlimit:4;stroke-dasharray:none;stroke-dashoffset:0;stroke-opacity:1;color-rendering:auto;image-rendering:auto;shape-rendering:auto;text-rendering:auto;enable-background:accumulate"
         d="m 248.58271,253.25282 c -0.24973,23.36761 3.48181,47.19331 7.05693,70.41582 6.85779,39.99523 17.261,79.31158 27.71424,118.5109 18.53396,-22.75322 48.54047,-36.16788 77.9163,-33.23689 C 328.23152,353.70686 294.48076,297.87993 248.62624,252.31563 l -0.0435,0.93719 z"
         id="path4560"
         inkscape:connector-curvature="0"
         inkscape:export-xdpi="90"
         inkscape:export-ydpi="90" />
    </g>
    <g
       style="display:inline"
       inkscape:label="ion - flame fill"
       id="g4610"
       inkscape:groupmode="layer">
      <path
         style="color:#000000;font-style:normal;font-variant:normal;font-weight:normal;font-stretch:normal;font-size:medium;line-height:normal;font-family:sans-serif;text-indent:0;text-align:start;text-decoration:none;text-decoration-line:none;text-decoration-style:solid;text-decoration-color:#000000;letter-spacing:normal;word-spacing:normal;text-transform:none;direction:ltr;block-progression:tb;writing-mode:lr-tb;baseline-shift:baseline;text-anchor:start;white-space:normal;clip-rule:nonzero;display:inline;overflow:visible;visibility:visible;opacity:1;isolation:auto;mix-blend-mode:normal;color-interpolation:sRGB;color-interpolation-filters:linearRGB;solid-color:#000000;solid-opacity:1;fill:#ffff00;fill-opacity:1;fill-rule:nonzero;stroke:none;stroke-width:5;stroke-linecap:butt;stroke-linejoin:miter;stroke-miterlimit:4;stroke-dasharray:none;stroke-dashoffset:0;stroke-opacity:1;color-rendering:auto;image-rendering:auto;shape-rendering:auto;text-rendering:auto;enable-background:accumulate"
         d="m 255.12305,269.02344 c 3.62314,54.65698 17.05805,108.58206 31.45312,160.83008 17.06492,-16.38186 40.18544,-26.53084 63.88867,-27.26368 -28.3557,-47.25922 -57.69045,-94.54191 -95.43359,-135.03125 l 0.0625,0.99805 0.0293,0.4668 z"
         id="path4612"
         inkscape:connector-curvature="0" />
    </g>
    <g
       inkscape:groupmode="layer"
       id="g4584"
       inkscape:label="ion - ion outer outline"
       style="display:inline">
      <path
         style="fill:#ff0000;fill-opacity:1;stroke-width:0.1;stroke-linecap:butt;stroke-linejoin:miter;stroke-miterlimit:4;stroke-dasharray:none"
         d="m 323.4219,434.76646 c -31.26333,13.92713 -41.07618,60.86691 -16.50715,85.30583 20.35249,22.45459 60.35279,23.73108 80.13376,-0.16824 20.68852,-22.39255 17.8829,-63.42632 -8.72112,-80.06455 -15.82229,-11.26059 -37.36213,-13.88968 -54.90549,-5.07304 z"
         id="circle4586"
         inkscape:connector-curvature="0"
         inkscape:export-xdpi="90"
         inkscape:export-ydpi="90" />
    </g>
    <g
       style="display:inline"
       inkscape:label="ion - ion middle outline"
       id="g4606"
       inkscape:groupmode="layer">
      <path
         style="fill:#ffff00;fill-opacity:1;stroke-width:0.1;stroke-linecap:butt;stroke-linejoin:miter;stroke-miterlimit:4;stroke-dasharray:none"
         d="m 344.89062,435.51562 c -22.06623,-0.0897 -41.51754,18.15381 -44.87695,39.35743 -4.12717,18.9722 4.45684,40.31055 21.94336,49.78515 21.33724,12.53348 52.27725,7.37474 65.27149,-14.7539 14.30542,-21.79309 7.7487,-56.03515 -16.5879,-67.85352 -7.71656,-4.40616 -16.76478,-6.7581 -25.75,-6.53516 z"
         id="path4608"
         inkscape:connector-curvature="0" />
    </g>
    <g
       inkscape:groupmode="layer"
       id="g4637"
       inkscape:label="ion - ion inner outline 1"
       style="display:none">
      <path
         style="fill:#ff6600;fill-opacity:1;stroke-width:0.1;stroke-linecap:butt;stroke-linejoin:miter;stroke-miterlimit:4;stroke-dasharray:none"
         d="m 336.17578,491.75781 c -32.28717,-0.33473 -56.10194,40.26938 -39.60937,68.19531 13.48938,25.91628 53.83934,32.76483 73.85351,10.66602 18.82104,-18.90435 17.06676,-54.86614 -5.96484,-69.76562 -8.20614,-5.98505 -18.09422,-9.36056 -28.2793,-9.09571 z"
         id="path4639"
         inkscape:connector-curvature="0" />
    </g>
    <g
       style="display:none"
       inkscape:label="ion - ion fill 1"
       id="g4714"
       inkscape:groupmode="layer">
      <path
         style="fill:#ff0000;fill-opacity:1;stroke-width:0.1;stroke-linecap:butt;stroke-linejoin:miter;stroke-miterlimit:4;stroke-dasharray:none"
         d="m 336.25977,497.75781 c -29.84885,-0.30171 -50.50768,39.58151 -31.95181,63.40403 14.5868,20.91704 50.77409,23.02026 65.41665,1.0823 14.11393,-18.84274 7.95831,-50.31994 -14.34539,-59.97054 -5.86407,-3.06958 -12.49204,-4.70248 -19.11945,-4.51579 z"
         id="path4716"
         inkscape:connector-curvature="0" />
    </g>
    <g
       style="display:inline"
       inkscape:label="ion - ion inner outline 2"
       id="g4774"
       inkscape:groupmode="layer">
      <path
         style="fill:#ff0000;fill-opacity:1;stroke-width:0.1;stroke-linecap:butt;stroke-linejoin:miter;stroke-miterlimit:4;stroke-dasharray:none"
         d="m 345.07422,441.54688 c -19.03492,-0.19352 -36.28379,15.32781 -38.98633,34.13476 -3.93237,18.07525 5.1906,39.58771 23.42188,46.48047 21.90805,9.3947 51.8131,-2.22473 57.90429,-26.23047 7.1332,-23.57906 -9.86186,-52.138 -35.19726,-53.98437 -2.3651,-0.32535 -4.75594,-0.4595 -7.14258,-0.40039 z"
         id="path4776"
         inkscape:connector-curvature="0" />
    </g>
    <g
       inkscape:groupmode="layer"
       id="g4792"
       inkscape:label="ion - ion fill 2"
       style="display:inline">
      <path
         style="fill:#ff6600;fill-opacity:1;stroke-width:0.1;stroke-linecap:butt;stroke-linejoin:miter;stroke-miterlimit:4;stroke-dasharray:none"
         d="m 346.68555,447.27734 c -19.37032,-0.62211 -35.87158,16.9836 -35.46485,36.00977 -0.78023,16.95166 11.8362,34.66851 29.64649,35.94727 20.25292,2.94532 43.30168,-12.92318 42.34375,-34.6211 -0.0406,-19.2072 -16.61545,-38.1849 -36.52539,-37.33594 z"
         id="path4794"
         inkscape:connector-curvature="0" />
    </g>
  </g>
  <g
     style="display:inline"
     inkscape:label="ion copy"
     id="g5309"
     inkscape:groupmode="layer">
    <g
       style="display:inline"
       inkscape:label="ion - bottom outer outline"
       id="g5311"
       inkscape:groupmode="layer">
      <path
         inkscape:export-ydpi="90"
         inkscape:export-xdpi="90"
         inkscape:connector-curvature="0"
         id="path5313"
         d="m 136.5471,117.18163 c -44.61731,26.80546 91.83538,335.99804 118.6408,380.61531 26.80546,44.61729 84.80069,59.08049 129.41795,32.27507 44.61729,-26.80543 59.0805,-84.80067 32.27507,-129.41796 C 390.0755,356.03678 181.16434,90.376189 136.5471,117.18163 Z"
         style="color:#000000;font-style:normal;font-variant:normal;font-weight:normal;font-stretch:normal;font-size:medium;line-height:normal;font-family:sans-serif;text-indent:0;text-align:start;text-decoration:none;text-decoration-line:none;text-decoration-style:solid;text-decoration-color:#000000;letter-spacing:normal;word-spacing:normal;text-transform:none;direction:ltr;block-progression:tb;writing-mode:lr-tb;baseline-shift:baseline;text-anchor:start;white-space:normal;clip-rule:nonzero;display:inline;overflow:visible;visibility:visible;opacity:1;isolation:auto;mix-blend-mode:normal;color-interpolation:sRGB;color-interpolation-filters:linearRGB;solid-color:#000000;solid-opacity:1;fill:#ff0000;fill-opacity:1;fill-rule:nonzero;stroke:none;stroke-width:5;stroke-linecap:butt;stroke-linejoin:miter;stroke-miterlimit:4;stroke-dasharray:none;stroke-dashoffset:0;stroke-opacity:1;color-rendering:auto;image-rendering:auto;shape-rendering:auto;text-rendering:auto;enable-background:accumulate"
         sodipodi:nodetypes="sssss" />
    </g>
    <g
       inkscape:groupmode="layer"
       id="g5315"
       inkscape:label="ion - bottom"
       style="display:inline">
      <path
         inkscape:connector-curvature="0"
         id="path5317"
         d="m 141.43449,124.0444 c -9.79843,8.37548 -5.08167,22.73261 -4.56633,33.68081 9.71733,72.49823 40.46918,139.94407 66.13856,207.99378 19.79402,47.98329 39.72528,96.29234 67.41953,140.3303 31.45483,37.42579 96.55851,40.171 128.87949,2.38226 27.06016,-28.83355 31.6115,-76.90181 7.41775,-108.81483 -23.98461,-37.07614 -53.3798,-70.29265 -80.45609,-105.1348 -47.31168,-57.4814 -96.59121,-114.56967 -156.03492,-159.82755 -8.52726,-5.52108 -18.20912,-11.89642 -28.79799,-10.60997 z"
         style="color:#000000;font-style:normal;font-variant:normal;font-weight:normal;font-stretch:normal;font-size:medium;line-height:normal;font-family:sans-serif;text-indent:0;text-align:start;text-decoration:none;text-decoration-line:none;text-decoration-style:solid;text-decoration-color:#000000;letter-spacing:normal;word-spacing:normal;text-transform:none;direction:ltr;block-progression:tb;writing-mode:lr-tb;baseline-shift:baseline;text-anchor:start;white-space:normal;clip-rule:nonzero;display:inline;overflow:visible;visibility:visible;opacity:1;isolation:auto;mix-blend-mode:normal;color-interpolation:sRGB;color-interpolation-filters:linearRGB;solid-color:#000000;solid-opacity:1;fill:#ff6600;fill-opacity:1;fill-rule:nonzero;stroke:none;stroke-width:5;stroke-linecap:butt;stroke-linejoin:miter;stroke-miterlimit:4;stroke-dasharray:none;stroke-dashoffset:0;stroke-opacity:1;color-rendering:auto;image-rendering:auto;shape-rendering:auto;text-rendering:auto;enable-background:accumulate" />
    </g>
    <g
       style="display:inline"
       inkscape:label="ion - bottom inner outline"
       id="g5319"
       inkscape:groupmode="layer">
      <path
         inkscape:export-ydpi="90"
         inkscape:export-xdpi="90"
         inkscape:connector-curvature="0"
         id="path5321"
         d="m 167.6716,170.3151 c 3.90735,30.14846 13.02647,60.16657 21.8349,89.43588 16.07284,50.28264 36.59021,99.0491 57.15085,147.65569 19.75846,-32.66603 55.98653,-55.37798 94.36033,-56.91856 C 288.45917,285.31001 234.87626,219.49928 167.55806,169.09988 l 0.11373,1.21519 z"
         style="color:#000000;font-style:normal;font-variant:normal;font-weight:normal;font-stretch:normal;font-size:medium;line-height:normal;font-family:sans-serif;text-indent:0;text-align:start;text-decoration:none;text-decoration-line:none;text-decoration-style:solid;text-decoration-color:#000000;letter-spacing:normal;word-spacing:normal;text-transform:none;direction:ltr;block-progression:tb;writing-mode:lr-tb;baseline-shift:baseline;text-anchor:start;white-space:normal;clip-rule:nonzero;display:inline;overflow:visible;visibility:visible;opacity:1;isolation:auto;mix-blend-mode:normal;color-interpolation:sRGB;color-interpolation-filters:linearRGB;solid-color:#000000;solid-opacity:1;fill:#ff0000;fill-opacity:1;fill-rule:nonzero;stroke:none;stroke-width:5;stroke-linecap:butt;stroke-linejoin:miter;stroke-miterlimit:4;stroke-dasharray:none;stroke-dashoffset:0;stroke-opacity:1;color-rendering:auto;image-rendering:auto;shape-rendering:auto;text-rendering:auto;enable-background:accumulate" />
    </g>
    <g
       inkscape:groupmode="layer"
       id="g5323"
       inkscape:label="ion - flame fill"
       style="display:inline">
      <path
         inkscape:connector-curvature="0"
         id="path5325"
         d="m 178.95137,189.44789 c 14.55927,69.75603 41.6261,136.79347 69.62632,201.49667 19.01908,-24.19231 46.96728,-41.45103 77.3703,-46.68493 C 280.86586,288.50984 234.51823,232.907 178.56797,187.57741 l 0.26113,1.27444 0.12209,0.59606 z"
         style="color:#000000;font-style:normal;font-variant:normal;font-weight:normal;font-stretch:normal;font-size:medium;line-height:normal;font-family:sans-serif;text-indent:0;text-align:start;text-decoration:none;text-decoration-line:none;text-decoration-style:solid;text-decoration-color:#000000;letter-spacing:normal;word-spacing:normal;text-transform:none;direction:ltr;block-progression:tb;writing-mode:lr-tb;baseline-shift:baseline;text-anchor:start;white-space:normal;clip-rule:nonzero;display:inline;overflow:visible;visibility:visible;opacity:1;isolation:auto;mix-blend-mode:normal;color-interpolation:sRGB;color-interpolation-filters:linearRGB;solid-color:#000000;solid-opacity:1;fill:#ffff00;fill-opacity:1;fill-rule:nonzero;stroke:none;stroke-width:5;stroke-linecap:butt;stroke-linejoin:miter;stroke-miterlimit:4;stroke-dasharray:none;stroke-dashoffset:0;stroke-opacity:1;color-rendering:auto;image-rendering:auto;shape-rendering:auto;text-rendering:auto;enable-background:accumulate" />
    </g>
    <g
       style="display:inline"
       inkscape:label="ion - ion outer outline"
       id="g5327"
       inkscape:groupmode="layer">
      <path
         inkscape:export-ydpi="90"
         inkscape:export-xdpi="90"
         inkscape:connector-curvature="0"
         id="path5329"
         d="m 296.93328,390.60534 c -37.75439,23.59959 -41.90064,85.8456 -5.8267,112.88247 30.2829,25.24372 82.04421,19.64893 103.20172,-14.71927 22.59933,-32.59137 11.55874,-84.94527 -25.72501,-101.56467 -22.42096,-11.64291 -50.64544,-11.13154 -71.65001,3.40147 z"
         style="fill:#ff0000;fill-opacity:1;stroke-width:0.1;stroke-linecap:butt;stroke-linejoin:miter;stroke-miterlimit:4;stroke-dasharray:none" />
    </g>
    <g
       inkscape:groupmode="layer"
       id="g5331"
       inkscape:label="ion - ion middle outline"
       style="display:inline">
      <path
         inkscape:connector-curvature="0"
         id="path5333"
         d="m 324.7259,387.68503 c -28.44302,3.87791 -50.19943,30.90042 -50.68975,58.82394 -1.88326,25.18782 13.0369,51.12339 37.27857,60.16431 29.75598,12.28461 68.68075,0.0394 81.4157,-30.8195 14.48487,-30.66386 -0.15894,-73.5895 -33.6494,-84.4101 -10.73825,-4.27967 -22.82028,-5.67199 -34.35512,-3.75865 z"
         style="fill:#ffff00;fill-opacity:1;stroke-width:0.1;stroke-linecap:butt;stroke-linejoin:miter;stroke-miterlimit:4;stroke-dasharray:none" />
    </g>
    <g
       style="display:none"
       inkscape:label="ion - ion inner outline 1"
       id="g5335"
       inkscape:groupmode="layer">
      <path
         inkscape:connector-curvature="0"
         id="path5337"
         d="m 336.17578,491.75781 c -32.28717,-0.33473 -56.10194,40.26938 -39.60937,68.19531 13.48938,25.91628 53.83934,32.76483 73.85351,10.66602 18.82104,-18.90435 17.06676,-54.86614 -5.96484,-69.76562 -8.20614,-5.98505 -18.09422,-9.36056 -28.2793,-9.09571 z"
         style="fill:#ff6600;fill-opacity:1;stroke-width:0.1;stroke-linecap:butt;stroke-linejoin:miter;stroke-miterlimit:4;stroke-dasharray:none" />
    </g>
    <g
       inkscape:groupmode="layer"
       id="g5343"
       inkscape:label="ion - ion inner outline 2"
       style="display:none">
      <path
         inkscape:connector-curvature="0"
         id="path5345"
         d="m 348.3781,466.57368 c -15.50406,-0.15762 -29.55338,12.4846 -31.75462,27.80297 -3.20293,14.72241 4.22778,32.24445 19.07727,37.85863 17.84425,7.65205 42.20209,-1.81205 47.16341,-21.36487 5.81003,-19.20529 -8.03254,-42.46673 -28.66839,-43.97061 -1.92639,-0.265 -3.87375,-0.37427 -5.81767,-0.32612 z"
         style="fill:#ff0000;fill-opacity:1;stroke-width:0.1;stroke-linecap:butt;stroke-linejoin:miter;stroke-miterlimit:4;stroke-dasharray:none" />
    </g>
    <g
       style="display:inline"
       inkscape:label="ion - ion fill 2"
       id="g5347"
       inkscape:groupmode="layer">
      <path
         inkscape:connector-curvature="0"
         id="path5349"
         d="m 329.16685,402.5122 c -25.06639,2.70421 -43.13779,28.3711 -39.17049,52.80792 2.06277,21.97916 21.52224,42.51951 44.69776,40.94358 26.62381,0.12889 53.44446,-24.48496 48.28353,-52.26393 -3.52862,-24.73623 -28.31549,-46.18453 -53.8108,-41.48757 z"
         style="fill:#ff6600;fill-opacity:1;stroke-width:0.1;stroke-linecap:butt;stroke-linejoin:miter;stroke-miterlimit:4;stroke-dasharray:none" />
    </g>
  </g>
  <g
     inkscape:groupmode="layer"
     id="layer11"
     inkscape:label="Label on the right"
     style="display:none"
     sodipodi:insensitive="true">
    <flowRoot
       xml:space="preserve"
       id="flowRoot5096"
       style="font-style:normal;font-weight:normal;font-size:40px;line-height:120.00000477%;font-family:Sans;letter-spacing:42.56999969px;word-spacing:0px;display:inline;fill:#000000;fill-opacity:1;stroke:none;stroke-width:1px;stroke-linecap:butt;stroke-linejoin:miter;stroke-opacity:1"
       transform="translate(18,158)"><flowRegion
         id="flowRegion5098"><rect
           id="rect5100"
           width="630"
           height="166"
           x="778"
           y="166.3622"
           style="line-height:120.00000477%" /></flowRegion><flowPara
         id="flowPara5102"
         style="font-style:normal;font-variant:normal;font-weight:bold;font-stretch:normal;font-size:125px;line-height:120.00000477%;font-family:Waree;-inkscape-font-specification:'Waree Bold';letter-spacing:2px">COSIMA</flowPara></flowRoot>    <flowRoot
       xml:space="preserve"
       id="flowRoot5129"
       style="font-style:normal;font-weight:normal;font-size:40px;line-height:1000%;font-family:Sans;letter-spacing:42.56999969px;word-spacing:0px;fill:#000000;fill-opacity:1;stroke:none;stroke-width:1px;stroke-linecap:butt;stroke-linejoin:miter;stroke-opacity:1"
       transform="translate(-26,104)"><flowRegion
         id="flowRegion5131"><rect
           id="rect5133"
           width="796"
           height="382"
           x="814"
           y="360.36221" /></flowRegion><flowPara
         id="flowPara5135"
         style="font-style:normal;font-variant:normal;font-weight:normal;font-stretch:normal;font-size:57.5px;line-height:120.00000477%;font-family:Waree;-inkscape-font-specification:Waree;letter-spacing:2px">Computer Simulations of</flowPara><flowPara
         style="font-style:normal;font-variant:normal;font-weight:normal;font-stretch:normal;font-size:57.5px;line-height:120.00000477%;font-family:Waree;-inkscape-font-specification:Waree;letter-spacing:2px"
         id="flowPara5139">Irradiation of Materials</flowPara></flowRoot>  </g>
</svg>
